{
   "resource":"/register/{verification}",
   "path":"/register/bXphOTY2NThAY3VvbHkuY29t",
   "httpMethod":"GET",
   "headers":{
      "accept":"text/html,application/xhtml+xml,application/xml;q=0.9,image/avif,image/webp,image/apng,*/*;q=0.8,application/signed-exchange;v=b3;q=0.9",
      "accept-encoding":"gzip, deflate, br",
      "accept-language":"pl-PL,pl;q=0.9,en-US;q=0.8,en;q=0.7",
      "Host":"7f6kavfkr2.execute-api.eu-west-1.amazonaws.com",
      "referer":"https://10minutemail.net/readmail.html?mid=gjIEnc",
      "sec-fetch-dest":"document",
      "sec-fetch-mode":"navigate",
      "sec-fetch-site":"cross-site",
      "sec-fetch-user":"?1",
      "upgrade-insecure-requests":"1",
      "User-Agent":"Mozilla/5.0 (Windows NT 10.0; Win64; x64) AppleWebKit/537.36 (KHTML, like Gecko) Chrome/85.0.4183.121 Safari/537.36 OPR/71.0.3770.323",
      "X-Amzn-Trace-Id":"Root=1-5fbaad57-63fd360358998843195f4a61",
      "X-Forwarded-For":"95.160.159.66",
      "X-Forwarded-Port":"443",
      "X-Forwarded-Proto":"https"
   },
   "multiValueHeaders":{
      "accept":[
         "text/html,application/xhtml+xml,application/xml;q=0.9,image/avif,image/webp,image/apng,*/*;q=0.8,application/signed-exchange;v=b3;q=0.9"
      ],
      "accept-encoding":[
         "gzip, deflate, br"
      ],
      "accept-language":[
         "pl-PL,pl;q=0.9,en-US;q=0.8,en;q=0.7"
      ],
      "Host":[
         "7f6kavfkr2.execute-api.eu-west-1.amazonaws.com"
      ],
      "referer":[
         "https://10minutemail.net/readmail.html?mid=gjIEnc"
      ],
      "sec-fetch-dest":[
         "document"
      ],
      "sec-fetch-mode":[
         "navigate"
      ],
      "sec-fetch-site":[
         "cross-site"
      ],
      "sec-fetch-user":[
         "?1"
      ],
      "upgrade-insecure-requests":[
         "1"
      ],
      "User-Agent":[
         "Mozilla/5.0 (Windows NT 10.0; Win64; x64) AppleWebKit/537.36 (KHTML, like Gecko) Chrome/85.0.4183.121 Safari/537.36 OPR/71.0.3770.323"
      ],
      "X-Amzn-Trace-Id":[
         "Root=1-5fbaad57-63fd360358998843195f4a61"
      ],
      "X-Forwarded-For":[
         "95.160.159.66"
      ],
      "X-Forwarded-Port":[
         "443"
      ],
      "X-Forwarded-Proto":[
         "https"
      ]
   },
   "queryStringParameters":"None",
   "multiValueQueryStringParameters":"None",
   "pathParameters":{
      "verification":"bXphOTY2NThAY3VvbHkuY29t"
   },
   "stageVariables":"None",
   "requestContext":{
      "resourceId":"v3dqew",
      "resourcePath":"/register/{verification}",
      "httpMethod":"GET",
      "extendedRequestId":"WbAFuFnUjoEF8PA=",
      "requestTime":"22/Nov/2020:18:26:31 +0000",
      "path":"/v1/register/bXphOTY2NThAY3VvbHkuY29t",
      "accountId":"070180606673",
      "protocol":"HTTP/1.1",
      "stage":"v1",
      "domainPrefix":"7f6kavfkr2",
      "requestTimeEpoch":1606069591796,
      "requestId":"e889354f-dcb9-4ed7-ace6-448ab645fb58",
      "identity":{
         "cognitoIdentityPoolId":"None",
         "accountId":"None",
         "cognitoIdentityId":"None",
         "caller":"None",
         "sourceIp":"95.160.159.66",
         "principalOrgId":"None",
         "accessKey":"None",
         "cognitoAuthenticationType":"None",
         "cognitoAuthenticationProvider":"None",
         "userArn":"None",
         "userAgent":"Mozilla/5.0 (Windows NT 10.0; Win64; x64) AppleWebKit/537.36 (KHTML, like Gecko) Chrome/85.0.4183.121 Safari/537.36 OPR/71.0.3770.323",
         "user":"None"
      },
      "domainName":"7f6kavfkr2.execute-api.eu-west-1.amazonaws.com",
      "apiId":"7f6kavfkr2"
   },
   "body":"None",
   "isBase64Encoded":"False"
}