{
   "resource":"/reservations",
   "path":"/reservations",
   "httpMethod":"POST",
   "headers":{
      "Accept":"*/*",
      "Accept-Encoding":"gzip, deflate, br",
      "Authorization":"Bearer eyJ0eXAiOiJKV1QiLCJhbGciOiJIUzI1NiJ9.eyJ1c2VySWQiOjEsInNpZ25lZEF0IjoxNjA5OTU1MDM2LCJleHBpcmVzQXQiOjE2MDk5NTg2MzZ9.VIVKfiFH-ED69o3eN-htlpxYMSSn1B5Rx_tb-2ItFe4",
      "Content-Type":"text/plain",
      "Host":"7f6kavfkr2.execute-api.eu-west-1.amazonaws.com",
      "Postman-Token":"ed2fea78-1f1c-4fb9-a666-196647f11e62",
      "User-Agent":"PostmanRuntime/7.26.8",
      "X-Amzn-Trace-Id":"Root=1-5ff5d0e6-4c9d4cdc3407b8bb32cbca3c",
      "X-Forwarded-For":"95.160.157.111",
      "X-Forwarded-Port":"443",
      "X-Forwarded-Proto":"https"
   },
   "multiValueHeaders":{
      "Accept":[
         "*/*"
      ],
      "Accept-Encoding":[
         "gzip, deflate, br"
      ],
      "Authorization":[
         "Bearer eyJ0eXAiOiJKV1QiLCJhbGciOiJIUzI1NiJ9.eyJ1c2VySWQiOjEsInNpZ25lZEF0IjoxNjA5OTQ5ODU2LCJleHBpcmVzQXQiOjE2MDk5NTM0NTZ9.ZzmaDWbIIfvPJI845AajEkRfW4b65-H2HlvYyRroIcI"
      ],
      "Content-Type":[
         "text/plain"
      ],
      "Host":[
         "7f6kavfkr2.execute-api.eu-west-1.amazonaws.com"
      ],
      "Postman-Token":[
         "ed2fea78-1f1c-4fb9-a666-196647f11e62"
      ],
      "User-Agent":[
         "PostmanRuntime/7.26.8"
      ],
      "X-Amzn-Trace-Id":[
         "Root=1-5ff5d0e6-4c9d4cdc3407b8bb32cbca3c"
      ],
      "X-Forwarded-For":[
         "95.160.157.111"
      ],
      "X-Forwarded-Port":[
         "443"
      ],
      "X-Forwarded-Proto":[
         "https"
      ]
   },
   "queryStringParameters":"None",
   "multiValueQueryStringParameters":"None",
   "pathParameters":"None",
   "stageVariables":"None",
   "requestContext":{
      "resourceId":"xzau5u",
      "resourcePath":"/reservations",
      "httpMethod":"POST",
      "extendedRequestId":"Yu2UEFIbDoEF0zQ=",
      "requestTime":"06/Jan/2021:15:01:58 +0000",
      "path":"/v1/reservations",
      "accountId":"070180606673",
      "protocol":"HTTP/1.1",
      "stage":"v1",
      "domainPrefix":"7f6kavfkr2",
      "requestTimeEpoch":1609945318762,
      "requestId":"a2828a59-a740-4d76-ad0e-98f018fc37c2",
      "identity":{
         "cognitoIdentityPoolId":"None",
         "accountId":"None",
         "cognitoIdentityId":"None",
         "caller":"None",
         "sourceIp":"95.160.157.111",
         "principalOrgId":"None",
         "accessKey":"None",
         "cognitoAuthenticationType":"None",
         "cognitoAuthenticationProvider":"None",
         "userArn":"None",
         "userAgent":"PostmanRuntime/7.26.8",
         "user":"None"
      },
      "domainName":"7f6kavfkr2.execute-api.eu-west-1.amazonaws.com",
      "apiId":"7f6kavfkr2"
   },
   "body":"{\r\n    \"RoomId\": 2,\r\n    \"From\": \"15.02.2021\",\r\n    \"To\": \"19.02.2021\"\r\n}",
   "isBase64Encoded":false
}